Untersuchung der Gehälter von Cyber-Security Experten
…
# Daten laden
data <- as_tibble(read_csv("data/Cyber_salaries.csv"))

Rows: 1349 Columns: 11
── Column specification ────────────────────────────────────────────────────────
Delimiter: ","
chr (7): experience_level, employment_type, job_title, salary_currency, empl...
dbl (4): work_year, salary, salary_in_usd, remote_ratio

ℹ Use `spec()` to retrieve the full column specification for this data.
ℹ Specify the column types or set `show_col_types = FALSE` to quiet this message.

data

# A tibble: 1,349 × 11
   work_year experience…¹ emplo…² job_t…³ salary salar…⁴ salar…⁵ emplo…⁶ remot…⁷
       <dbl> <chr>        <chr>   <chr>    <dbl> <chr>     <dbl> <chr>     <dbl>
 1      2022 EN           FT      Inform…  68000 EUR       72762 DE          100
 2      2022 SE           FT      Securi… 123400 USD      123400 US            0
 3      2022 SE           FT      Securi…  88100 USD       88100 US            0
 4      2022 SE           FT      Securi… 163575 USD      163575 US          100
 5      2022 SE           FT      Securi… 115800 USD      115800 US          100
 6      2022 MI           FT      Penetr…  40000 EUR       42801 CY          100
 7      2022 SE           FT      Securi… 136600 USD      136600 US          100
 8      2022 SE           FT      Securi… 109280 USD      109280 US          100
 9      2022 SE           FT      Securi… 211600 USD      211600 US          100
10      2022 SE           FT      Securi… 182160 USD      182160 US          100
# … with 1,339 more rows, 2 more variables: company_location <chr>,
#   company_size <chr>, and abbreviated variable names ¹​experience_level,
#   ²​employment_type, ³​job_title, ⁴​salary_currency, ⁵​salary_in_usd,
#   ⁶​employee_residence, ⁷​remote_ratio
…
